…
``` r
  ranef.out.ci = broom.mixed::tidy(re_int_slopes, 
                                   effects = "ran_vals", 
                                   conf.int = TRUE)

#Non-intercept estimates per indivual  
  ranef.out.ci[-which(ranef.out.ci$term=="(Intercept)"),-c(1,2,3,4)]
```

    ## # A tibble: 60 × 5
    ##    term     estimate std.error conf.low conf.high
    ##    <chr>       <dbl>     <dbl>    <dbl>     <dbl>
    ##  1 dist.dev  0.0463     0.0521  -0.0558    0.148 
    ##  2 dist.dev  0.158      0.0517   0.0568    0.259 
    ##  3 dist.dev  0.115      0.0507   0.0159    0.215 
    ##  4 dist.dev -0.147      0.0636  -0.272    -0.0225
    ##  5 dist.dev  0.0300     0.0493  -0.0667    0.127 
    ##  6 dist.dev -0.0178     0.0568  -0.129     0.0936
    ##  7 dist.dev  0.0582     0.0509  -0.0415    0.158 
    ##  8 dist.dev  0.0233     0.0543  -0.0831    0.130 
    ##  9 dist.dev -0.00110    0.0503  -0.0996    0.0974
    ## 10 dist.dev  0.126      0.0523   0.0232    0.228 
    ## # ℹ 50 more rows
…
